##################
### TECH COSTS ###
##################
#If you change any of these, use replace in files so the values are the same across all files

@tier1cost1 = 360
@tier1cost2 = 480
@tier1cost3 = 600
@tier1cost4 = 720

@tier2cost1 = 1000
@tier2cost2 = 1400
@tier2cost3 = 1800
@tier2cost4 = 2200

@tier3cost1 = 3000
@tier3cost2 = 4000
@tier3cost3 = 5000
@tier3cost4 = 6000

####################
### TECH WEIGHTS ###
####################

@tier1weight1 = 100
@tier1weight2 = 95
@tier1weight3 = 90
@tier1weight4 = 85

@tier2weight1 = 75
@tier2weight2 = 70
@tier2weight3 = 65
@tier2weight4 = 60

@tier3weight1 = 50
@tier3weight2 = 45
@tier3weight3 = 40
@tier3weight4 = 35

# ## Engineering - Weapon Technologies

# ##################
# Mass Drivers
# ##################

# Mass Drivers
tech_mass_drivers_1 = {
	area = engineering
	cost = @tier1cost1
	tier = 2
	category = { materials }
	ai_update_type = military
	is_reverse_engineerable = no
	weight = 0
	
	weight_modifier = {
		factor = 0.50
		modifier = {
			factor = 1.25
			has_ethic = ethic_militarist
		}
		modifier = {
			factor = 1.5
			has_ethic = ethic_fanatic_militarist
		}
		modifier = {
			factor = 1.25
			research_leader = {
				area = physics
				has_trait = "leader_trait_expertise_materials"
			}
		}
	}
	
	ai_weight = {
		factor = 0.25
		modifier = {
			factor = 1.25
			has_ethic = ethic_militarist
		}
		modifier = {
			factor = 1.5
			has_ethic = ethic_fanatic_militarist
		}
	}
}

# Coilguns
tech_mass_drivers_2 = {
	area = engineering
	cost = @tier1cost3
	tier = 1
	category = { materials }
	ai_update_type = military
	prerequisites = { "tech_mass_drivers_1" }
	is_reverse_engineerable = no
	weight = 0
	
	weight_modifier = {
		modifier = {
			factor = 1.25
			has_ethic = ethic_militarist
		}
		modifier = {
			factor = 1.5
			has_ethic = ethic_fanatic_militarist
		}
		modifier = {
			factor = 1.25
			research_leader = {
				area = physics
				has_trait = "leader_trait_expertise_materials"
			}
		}
	}
	
	ai_weight = {
		factor = 2		#weapons are good
		modifier = {
			factor = 1.25
			has_ethic = ethic_militarist
		}
		modifier = {
			factor = 1.5
			has_ethic = ethic_fanatic_militarist
		}
		modifier = {
			factor = 1.25
			research_leader = {
				area = physics
				has_trait = "leader_trait_expertise_materials"
			}
		}
	}
}

# Railguns
tech_mass_drivers_3 = {
	area = engineering
	cost = @tier2cost1
	tier = 2
	category = { materials }
	ai_update_type = military	
	prerequisites = { "tech_mass_drivers_2" }
	is_reverse_engineerable = no
	weight = 0
	
	weight_modifier = {
		modifier = {
			factor = 1.25
			has_ethic = ethic_militarist
		}
		modifier = {
			factor = 1.5
			has_ethic = ethic_fanatic_militarist
		}
		modifier = {
			factor = 1.25
			research_leader = {
				area = physics
				has_trait = "leader_trait_expertise_materials"
			}
		}
	}
	
	ai_weight = {
		factor = 2		#weapons are good
		modifier = {
			factor = 1.25
			has_ethic = ethic_militarist
		}
		modifier = {
			factor = 1.5
			has_ethic = ethic_fanatic_militarist
		}
		modifier = {
			factor = 1.25
			research_leader = {
				area = physics
				has_trait = "leader_trait_expertise_materials"
			}
		}
	}
}

# Advanced Railguns
tech_mass_drivers_4 = {
	area = engineering
	cost = @tier2cost3
	tier = 2
	category = { materials }
	ai_update_type = military
	prerequisites = { "tech_mass_drivers_3" }
	is_reverse_engineerable = no
	weight = 0
	
	weight_modifier = {
		modifier = {
			factor = 1.25
			has_ethic = ethic_militarist
		}
		modifier = {
			factor = 1.5
			has_ethic = ethic_fanatic_militarist
		}
		modifier = {
			factor = 1.25
			research_leader = {
				area = physics
				has_trait = "leader_trait_expertise_materials"
			}
		}
	}
	
	ai_weight = {
		factor = 2		#weapons are good
		modifier = {
			factor = 1.25
			has_ethic = ethic_militarist
		}
		modifier = {
			factor = 1.5
			has_ethic = ethic_fanatic_militarist
		}
		modifier = {
			factor = 1.25
			research_leader = {
				area = physics
				has_trait = "leader_trait_expertise_materials"
			}
		}
	}
}

# Gauss Cannons
tech_mass_drivers_5 = {
	area = engineering
	cost = @tier3cost1
	tier = 3
	category = { materials }
	ai_update_type = military
	prerequisites = { "tech_mass_drivers_4" }
	is_reverse_engineerable = no
	weight = 0
	
	weight_modifier = {
		modifier = {
			factor = 1.25
			has_ethic = ethic_militarist
		}
		modifier = {
			factor = 1.5
			has_ethic = ethic_fanatic_militarist
		}
		modifier = {
			factor = 1.25
			research_leader = {
				area = physics
				has_trait = "leader_trait_expertise_materials"
			}
		}
	}
	
	ai_weight = {
		factor = 2		#weapons are good
		modifier = {
			factor = 1.25
			has_ethic = ethic_militarist
		}
		modifier = {
			factor = 1.5
			has_ethic = ethic_fanatic_militarist
		}
		modifier = {
			factor = 1.25
			research_leader = {
				area = physics
				has_trait = "leader_trait_expertise_materials"
			}
		}
	}
}

tech_kinetic_artillery_1 = {
	area = engineering
	cost = @tier3cost1
	tier = 3
	category = { materials }
	ai_update_type = military	
	prerequisites = { "tech_mass_drivers_4" }
	is_reverse_engineerable = no
	weight = 0
	
	weight_modifier = {
		modifier = {
			factor = 1.25
			has_ethic = ethic_militarist
		}
		modifier = {
			factor = 1.5
			has_ethic = ethic_fanatic_militarist
		}
		modifier = {
			factor = 1.25
			research_leader = {
				area = physics
				has_trait = "leader_trait_expertise_materials"
			}
		}
	}
	
	ai_weight = {
		factor = 2		#weapons are good
		modifier = {
			factor = 1.25
			has_ethic = ethic_militarist
		}
		modifier = {
			factor = 1.5
			has_ethic = ethic_fanatic_militarist
		}
		modifier = {
			factor = 1.25
			research_leader = {
				area = physics
				has_trait = "leader_trait_expertise_materials"
			}
		}
	}
}

tech_kinetic_artillery_2 = {
	area = engineering
	cost = @tier3cost3
	tier = 3
	category = { materials }
	ai_update_type = military	
	prerequisites = { "tech_kinetic_artillery_1" }
	is_reverse_engineerable = no
	weight = 0
	
	weight_modifier = {
		modifier = {
			factor = 1.25
			has_ethic = ethic_militarist
		}
		modifier = {
			factor = 1.5
			has_ethic = ethic_fanatic_militarist
		}
		modifier = {
			factor = 1.25
			research_leader = {
				area = physics
				has_trait = "leader_trait_expertise_materials"
			}
		}
	}
	
	ai_weight = {
		factor = 2		#weapons are good
		modifier = {
			factor = 1.25
			has_ethic = ethic_militarist
		}
		modifier = {
			factor = 1.5
			has_ethic = ethic_fanatic_militarist
		}
		modifier = {
			factor = 1.25
			research_leader = {
				area = physics
				has_trait = "leader_trait_expertise_materials"
			}
		}
	}
}

tech_mass_accelerator_1 = {
	area = engineering
	cost = @tier3cost2
	tier = 3
	category = { materials }
	ai_update_type = military
	prerequisites = { "tech_mass_drivers_5" "tech_spaceport_6" }
	is_reverse_engineerable = no
	weight = 0
	
	weight_modifier = {
		modifier = {
			factor = 1.25
			has_ethic = ethic_militarist
		}
		modifier = {
			factor = 1.5
			has_ethic = ethic_fanatic_militarist
		}
		modifier = {
			factor = 1.25
			research_leader = {
				area = physics
				has_trait = "leader_trait_expertise_materials"
			}
		}
	}
	
	ai_weight = {
		factor = 2		#weapons are good
		modifier = {
			factor = 1.25
			has_ethic = ethic_militarist
		}
		modifier = {
			factor = 1.5
			has_ethic = ethic_fanatic_militarist
		}
		modifier = {
			factor = 1.25
			research_leader = {
				area = physics
				has_trait = "leader_trait_expertise_materials"
			}
		}
	}
}

tech_mass_accelerator_2 = {
	area = engineering
	cost = @tier3cost4
	tier = 3
	category = { materials }
	ai_update_type = military
	prerequisites = { "tech_mass_accelerator_1" }
	is_reverse_engineerable = no
	weight = 0
	
	weight_modifier = {
		modifier = {
			factor = 1.25
			has_ethic = ethic_militarist
		}
		modifier = {
			factor = 1.5
			has_ethic = ethic_fanatic_militarist
		}
		modifier = {
			factor = 1.25
			research_leader = {
				area = physics
				has_trait = "leader_trait_expertise_materials"
			}
		}
	}
	
	ai_weight = {
		factor = 2		#weapons are good
		modifier = {
			factor = 1.25
			has_ethic = ethic_militarist
		}
		modifier = {
			factor = 1.5
			has_ethic = ethic_fanatic_militarist
		}
		modifier = {
			factor = 1.25
			research_leader = {
				area = physics
				has_trait = "leader_trait_expertise_materials"
			}
		}
	}
}


# ##################
# Auto-Cannons
# ##################

tech_autocannons_1 = {
	area = engineering
	cost = @tier2cost1
	tier = 2
	category = { materials }	
	ai_update_type = military
	prerequisites = { tech_mass_drivers_2 }
	is_reverse_engineerable = no
	weight = 0
	
	weight_modifier = {
		modifier = {
			factor = 1.25
			has_ethic = ethic_militarist
		}
		modifier = {
			factor = 1.5
			has_ethic = ethic_fanatic_militarist
		}
		modifier = {
			factor = 0.5
			NOT = {
				has_technology = "tech_mass_drivers_1"
			}
		}	
		modifier = {
			factor = 1.25
			research_leader = {
				area = physics
				has_trait = "leader_trait_expertise_materials"
			}
		}
	}
	
	ai_weight = {
		factor = 2		#weapons are good
		modifier = {
			factor = 1.25
			has_ethic = ethic_militarist
		}
		modifier = {
			factor = 1.5
			has_ethic = ethic_fanatic_militarist
		}
		modifier = {
			factor = 1.25
			research_leader = {
				area = physics
				has_trait = "leader_trait_expertise_materials"
			}
		}
	}
}

tech_autocannons_2 = {
	area = engineering
	cost = @tier2cost3
	tier = 2
	category = { materials }
	ai_update_type = military	
	prerequisites = { "tech_autocannons_1" }
	is_reverse_engineerable = no
	weight = 0
	
	weight_modifier = {
		modifier = {
			factor = 1.25
			has_ethic = ethic_militarist
		}
		modifier = {
			factor = 1.5
			has_ethic = ethic_fanatic_militarist
		}
		modifier = {
			factor = 1.25
			research_leader = {
				area = physics
				has_trait = "leader_trait_expertise_materials"
			}
		}	
	}
	
	ai_weight = {
		factor = 2		#weapons are good
		modifier = {
			factor = 1.25
			research_leader = {
				area = physics
				has_trait = "leader_trait_expertise_materials"
			}
		}
	}
}

tech_autocannons_3 = {
	area = engineering
	cost = @tier3cost1
	tier = 3
	category = { materials }
	ai_update_type = military
	prerequisites = { "tech_autocannons_2" }
	is_reverse_engineerable = no
	weight = 0
	
	weight_modifier = {
		modifier = {
			factor = 1.25
			has_ethic = ethic_militarist
		}
		modifier = {
			factor = 1.5
			has_ethic = ethic_fanatic_militarist
		}
		modifier = {
			factor = 1.25
			research_leader = {
				area = physics
				has_trait = "leader_trait_expertise_materials"
			}
		}	
	}
	
	ai_weight = {
		factor = 2		#weapons are good
		modifier = {
			factor = 1.25
			has_ethic = ethic_militarist
		}
		modifier = {
			factor = 1.5
			has_ethic = ethic_fanatic_militarist
		}
		modifier = {
			factor = 1.25
			research_leader = {
				area = physics
				has_trait = "leader_trait_expertise_materials"
			}
		}
	}
}

tech_flak_batteries_1 = {
	area = engineering
	cost = @tier2cost3
	tier = 2
	category = { materials }
	ai_update_type = military	
	prerequisites = { "tech_autocannons_2" }
	is_reverse_engineerable = no
	weight = 0
	
	weight_modifier = {
		modifier = {
			factor = 1.25
			has_ethic = ethic_militarist
		}
		modifier = {
			factor = 1.5
			has_ethic = ethic_fanatic_militarist
		}
		modifier = {
			factor = 1.25
			research_leader = {
				area = physics
				has_trait = "leader_trait_expertise_materials"
			}
		}	
	}
	
	ai_weight = {
		factor = 2		#weapons are good
		modifier = {
			factor = 1.25
			has_ethic = ethic_militarist
		}
		modifier = {
			factor = 1.5
			has_ethic = ethic_fanatic_militarist
		}
		modifier = {
			factor = 1.25
			research_leader = {
				area = physics
				has_trait = "leader_trait_expertise_materials"
			}
		}
	}
}

tech_flak_batteries_2 = {
	area = engineering
	cost = @tier3cost1
	tier = 3
	category = { materials }
	ai_update_type = military	
	prerequisites = { "tech_flak_batteries_1" }
	is_reverse_engineerable = no
	weight = 0
	
	weight_modifier = {
		modifier = {
			factor = 1.25
			has_ethic = ethic_militarist
		}
		modifier = {
			factor = 1.5
			has_ethic = ethic_fanatic_militarist
		}
		modifier = {
			factor = 1.25
			research_leader = {
				area = physics
				has_trait = "leader_trait_expertise_materials"
			}
		}	
	}
	
	ai_weight = {
		factor = 2		#weapons are good
		modifier = {
			factor = 1.25
			has_ethic = ethic_militarist
		}
		modifier = {
			factor = 1.5
			has_ethic = ethic_fanatic_militarist
		}
		modifier = {
			factor = 1.25
			research_leader = {
				area = physics
				has_trait = "leader_trait_expertise_materials"
			}
		}
	}
}

# ##################
# Missiles
# ##################

# Nuclear Missiles
tech_missiles_1 = {
	area = engineering
	cost = @tier1cost1
	tier = 1
	category = { rocketry }
	ai_update_type = military
	is_reverse_engineerable = no
	weight = 0
	
	weight_modifier = {
		factor = 0.50
		modifier = {
			factor = 1.25
			has_ethic = ethic_militarist
		}
		modifier = {
			factor = 1.5
			has_ethic = ethic_fanatic_militarist
		}
		modifier = {
			factor = 1.25
			research_leader = {
				area = physics
				has_trait = "leader_trait_expertise_rocketry"
			}
		}
	}
	
	ai_weight = {
		factor = 0.25
		modifier = {
			factor = 1.25
			has_ethic = ethic_militarist
		}
		modifier = {
			factor = 1.5
			has_ethic = ethic_fanatic_militarist
		}
	}
}

# Fusion Missiles
tech_missiles_2 = {
	area = engineering
	cost = @tier1cost3
	tier = 1
	category = { rocketry }
	ai_update_type = military
	prerequisites = { "tech_missiles_1" }
	is_reverse_engineerable = no
	weight = 0
	
	weight_modifier = {
		modifier = {
			factor = 1.25
			has_ethic = ethic_militarist
		}
		modifier = {
			factor = 1.5
			has_ethic = ethic_fanatic_militarist
		}
		modifier = {
			factor = 1.25
			research_leader = {
				area = physics
				has_trait = "leader_trait_expertise_rocketry"
			}
		}
	}
	
	ai_weight = {
		factor = 2		#weapons are good
		modifier = {
			factor = 1.25
			has_ethic = ethic_militarist
		}
		modifier = {
			factor = 1.5
			has_ethic = ethic_fanatic_militarist
		}
		modifier = {
			factor = 1.25
			research_leader = {
				area = physics
				has_trait = "leader_trait_expertise_rocketry"
			}
		}
	}
}

# Antimatter Missiles
tech_missiles_3 = {
	area = engineering
	cost = @tier2cost1
	tier = 2
	category = { rocketry }
	ai_update_type = military
	prerequisites = { "tech_missiles_2" }
	is_reverse_engineerable = no
	weight = 0
	
	weight_modifier = {
		modifier = {
			factor = 1.25
			has_ethic = ethic_militarist
		}
		modifier = {
			factor = 1.5
			has_ethic = ethic_fanatic_militarist
		}
		modifier = {
			factor = 1.25
			research_leader = {
				area = physics
				has_trait = "leader_trait_expertise_rocketry"
			}
		}	
	}
	
	ai_weight = {
		factor = 2		#weapons are good
		modifier = {
			factor = 1.25
			has_ethic = ethic_militarist
		}
		modifier = {
			factor = 1.5
			has_ethic = ethic_fanatic_militarist
		}
		modifier = {
			factor = 1.25
			research_leader = {
				area = physics
				has_trait = "leader_trait_expertise_rocketry"
			}
		}
	}
}

# Heavy Missiles
tech_missiles_4 = {
	area = engineering
	cost = @tier2cost3
	tier = 2
	category = { rocketry }
	ai_update_type = military
	prerequisites = { "tech_missiles_3" }
	is_reverse_engineerable = no
	weight = 0
	
	weight_modifier = {
		modifier = {
			factor = 1.25
			has_ethic = ethic_militarist
		}
		modifier = {
			factor = 1.5
			has_ethic = ethic_fanatic_militarist
		}
		modifier = {
			factor = 1.25
			research_leader = {
				area = physics
				has_trait = "leader_trait_expertise_rocketry"
			}
		}	
	}
	
	ai_weight = {
		factor = 2		#weapons are good
		modifier = {
			factor = 1.25
			has_ethic = ethic_militarist
		}
		modifier = {
			factor = 1.5
			has_ethic = ethic_fanatic_militarist
		}
		modifier = {
			factor = 1.25
			research_leader = {
				area = physics
				has_trait = "leader_trait_expertise_rocketry"
			}
		}
	}
}

# Marauder Missiles
tech_missiles_5 = {
	area = engineering
	cost = @tier3cost1
	tier = 3
	category = { rocketry }
	ai_update_type = military
	prerequisites = { "tech_missiles_4" }
	is_reverse_engineerable = no
	weight = 0
	
	weight_modifier = {
		modifier = {
			factor = 1.25
			has_ethic = ethic_militarist
		}
		modifier = {
			factor = 1.5
			has_ethic = ethic_fanatic_militarist
		}
		modifier = {
			factor = 1.25
			research_leader = {
				area = physics
				has_trait = "leader_trait_expertise_rocketry"
			}
		}	
	}
	
	ai_weight = {
		factor = 2		#weapons are good
		modifier = {
			factor = 1.25
			has_ethic = ethic_militarist
		}
		modifier = {
			factor = 1.5
			has_ethic = ethic_fanatic_militarist
		}
		modifier = {
			factor = 1.25
			research_leader = {
				area = physics
				has_trait = "leader_trait_expertise_rocketry"
			}
		}
	}
}

#Swarmer Missiles
tech_swarmer_missiles_1 = {
	area = engineering
	cost = @tier2cost1
	tier = 2
	category = { rocketry }
	ai_update_type = military
	prerequisites = { "tech_missiles_4" }
	is_reverse_engineerable = no
	weight = 0
	
	weight_modifier = {
		modifier = {
			factor = 1.25
			has_ethic = ethic_militarist
		}
		modifier = {
			factor = 1.5
			has_ethic = ethic_fanatic_militarist
		}
		modifier = {
			factor = 1.25
			research_leader = {
				area = physics
				has_trait = "leader_trait_expertise_rocketry"
			}
		}
	}
	
	ai_weight = {
		factor = 2		#weapons are good
		modifier = {
			factor = 1.25
			has_ethic = ethic_militarist
		}
		modifier = {
			factor = 1.5
			has_ethic = ethic_fanatic_militarist
		}
		modifier = {
			factor = 1.25
			research_leader = {
				area = physics
				has_trait = "leader_trait_expertise_rocketry"
			}
		}
	}
}

#Whirlwind Missiles
tech_swarmer_missiles_2 = {
	area = engineering
	cost = @tier3cost1
	tier = 3
	category = { rocketry }
	ai_update_type = military
	prerequisites = { "tech_swarmer_missiles_1" }
	is_reverse_engineerable = no
	weight = 0
	
	weight_modifier = {
		modifier = {
			factor = 1.25
			has_ethic = ethic_militarist
		}
		modifier = {
			factor = 1.5
			has_ethic = ethic_fanatic_militarist
		}
		modifier = {
			factor = 1.25
			research_leader = {
				area = physics
				has_trait = "leader_trait_expertise_rocketry"
			}
		}	
	}
	
	ai_weight = {
		factor = 2		#weapons are good
		modifier = {
			factor = 1.25
			has_ethic = ethic_militarist
		}
		modifier = {
			factor = 1.5
			has_ethic = ethic_fanatic_militarist
		}
		modifier = {
			factor = 1.25
			research_leader = {
				area = physics
				has_trait = "leader_trait_expertise_rocketry"
			}
		}
	}
}

# ##################
# Torpedo Weapons
# ##################

#Space Torpedoes
tech_torpedoes_1 = {
	area = engineering
	cost = @tier1cost2
	tier = 1
	category = { rocketry }
	ai_update_type = military
	prerequisites = { "tech_missiles_2" }
	is_reverse_engineerable = no
	weight = 0
	
	weight_modifier = {
		modifier = {
			factor = 1.25
			has_ethic = ethic_militarist
		}
		modifier = {
			factor = 1.5
			has_ethic = ethic_fanatic_militarist
		}
		modifier = {
			factor = 1.25
			research_leader = {
				area = physics
				has_trait = "leader_trait_expertise_rocketry"
			}
		}
	}
	
	ai_weight = {
		factor = 2		#weapons are good
		modifier = {
			factor = 1.25
			has_ethic = ethic_militarist
		}
		modifier = {
			factor = 1.5
			has_ethic = ethic_fanatic_militarist
		}
		modifier = {
			factor = 1.25
			research_leader = {
				area = physics
				has_trait = "leader_trait_expertise_rocketry"
			}
		}
	}
}

#Armored Torpedoes
tech_torpedoes_2 = {
	area = engineering
	cost = @tier2cost2
	tier = 2
	category = { rocketry }
	ai_update_type = military
	prerequisites = { "tech_torpedoes_1" }
	is_reverse_engineerable = no
	weight = 0
	
	weight_modifier = {
		modifier = {
			factor = 1.25
			has_ethic = ethic_militarist
		}
		modifier = {
			factor = 1.5
			has_ethic = ethic_fanatic_militarist
		}
		modifier = {
			factor = 1.25
			research_leader = {
				area = physics
				has_trait = "leader_trait_expertise_rocketry"
			}
		}	
	}
	
	ai_weight = {
		factor = 2		#weapons are good
		modifier = {
			factor = 1.25
			has_ethic = ethic_militarist
		}
		modifier = {
			factor = 1.5
			has_ethic = ethic_fanatic_militarist
		}
		modifier = {
			factor = 1.25
			research_leader = {
				area = physics
				has_trait = "leader_trait_expertise_rocketry"
			}
		}
	}
}

#Devastator Torpedoes
tech_torpedoes_3 = {
	area = engineering
	cost = @tier3cost2
	tier = 3
	category = { rocketry }
	ai_update_type = military
	prerequisites = { "tech_torpedoes_2" }
	is_reverse_engineerable = no
	weight = 0
	
	weight_modifier = {
		modifier = {
			factor = 1.25
			has_ethic = ethic_militarist
		}
		modifier = {
			factor = 1.5
			has_ethic = ethic_fanatic_militarist
		}
		modifier = {
			factor = 1.25
			research_leader = {
				area = physics
				has_trait = "leader_trait_expertise_rocketry"
			}
		}	
	}
	
	ai_weight = {
		factor = 2		#weapons are good
		modifier = {
			factor = 1.25
			has_ethic = ethic_militarist
		}
		modifier = {
			factor = 1.5
			has_ethic = ethic_fanatic_militarist
		}
		modifier = {
			factor = 1.25
			research_leader = {
				area = physics
				has_trait = "leader_trait_expertise_rocketry"
			}
		}
	}
}