##################
### TECH COSTS ###
##################
#If you change any of these, use replace in files so the values are the same across all files

@tier1cost1 = 360
@tier1cost2 = 480
@tier1cost3 = 600
@tier1cost4 = 720

@tier2cost1 = 1000
@tier2cost2 = 1400
@tier2cost3 = 1800
@tier2cost4 = 2200

@tier3cost1 = 3000
@tier3cost2 = 4000
@tier3cost3 = 5000
@tier3cost4 = 6000

####################
### TECH WEIGHTS ###
####################

@tier1weight1 = 100
@tier1weight2 = 95
@tier1weight3 = 90
@tier1weight4 = 85

@tier2weight1 = 75
@tier2weight2 = 70
@tier2weight3 = 65
@tier2weight4 = 60

@tier3weight1 = 50
@tier3weight2 = 45
@tier3weight3 = 40
@tier3weight4 = 35

# ## Physics - Weapon Technologies

# ##################
# Laser Weapons
# ##################

# Red Lasers
tech_lasers_1 = {
	area = physics
	cost = @tier1cost1
	tier = 2
	category = { particles }
	ai_update_type = military
	is_reverse_engineerable = no
	weight = 0
	
	weight_modifier = {
		factor = 0.50
		modifier = {
			factor = 1.25
			has_ethic = ethic_militarist
		}
		modifier = {
			factor = 1.5
			has_ethic = ethic_fanatic_militarist
		}
		modifier = {
			factor = 1.25
			research_leader = {
				area = physics
				has_trait = "leader_trait_expertise_particles"
			}
		}
	}
	
	ai_weight = {
		factor = 0.25
		modifier = {
			factor = 1.25
			has_ethic = ethic_militarist
		}
		modifier = {
			factor = 1.5
			has_ethic = ethic_fanatic_militarist
		}
	}
}

# Blue Lasers
tech_lasers_2 = {
	area = physics
	cost = @tier1cost3
	tier = 1
	category = { particles }
	ai_update_type = military
	prerequisites = { "tech_lasers_1" }
	is_reverse_engineerable = no
	weight = 0
	
	weight_modifier = {
		modifier = {
			factor = 1.25
			has_ethic = ethic_militarist
		}
		modifier = {
			factor = 1.5
			has_ethic = ethic_fanatic_militarist
		}
		modifier = {
			factor = 1.25
			research_leader = {
				area = physics
				has_trait = "leader_trait_expertise_particles"
			}
		}
	}
	
	ai_weight = {
		factor = 2		#weapons are good
		modifier = {
			factor = 1.25
			has_ethic = ethic_militarist
		}
		modifier = {
			factor = 1.5
			has_ethic = ethic_fanatic_militarist
		}
		modifier = {
			factor = 1.25
			research_leader = {
				area = physics
				has_trait = "leader_trait_expertise_particles"
			}
		}
	}
}

# UV Lasers
tech_lasers_3 = {
	area = physics
	cost = @tier2cost1
	tier = 2
	category = { particles }
	ai_update_type = military	
	prerequisites = { "tech_lasers_2" }
	is_reverse_engineerable = no
	weight = 0
	
	weight_modifier = {
		modifier = {
			factor = 1.25
			has_ethic = ethic_militarist
		}
		modifier = {
			factor = 1.5
			has_ethic = ethic_fanatic_militarist
		}
		modifier = {
			factor = 1.25
			research_leader = {
				area = physics
				has_trait = "leader_trait_expertise_particles"
			}
		}
	}
	
	ai_weight = {
		factor = 2		#weapons are good
		modifier = {
			factor = 1.25
			has_ethic = ethic_militarist
		}
		modifier = {
			factor = 1.5
			has_ethic = ethic_fanatic_militarist
		}
		modifier = {
			factor = 1.25
			research_leader = {
				area = physics
				has_trait = "leader_trait_expertise_particles"
			}
		}
	}
}

# X-Ray Lasers
tech_lasers_4 = {
	area = physics
	cost = @tier2cost3
	tier = 2
	category = { particles }
	ai_update_type = military
	prerequisites = { "tech_lasers_3" }
	is_reverse_engineerable = no
	weight = 0
	
	weight_modifier = {
		modifier = {
			factor = 1.25
			has_ethic = ethic_militarist
		}
		modifier = {
			factor = 1.5
			has_ethic = ethic_fanatic_militarist
		}
		modifier = {
			factor = 1.25
			research_leader = {
				area = physics
				has_trait = "leader_trait_expertise_particles"
			}
		}
	}
	
	ai_weight = {
		factor = 2		#weapons are good
		modifier = {
			factor = 1.25
			has_ethic = ethic_militarist
		}
		modifier = {
			factor = 1.5
			has_ethic = ethic_fanatic_militarist
		}
		modifier = {
			factor = 1.25
			research_leader = {
				area = physics
				has_trait = "leader_trait_expertise_particles"
			}
		}
	}
}

# Gamma Lasers
tech_lasers_5 = {
	area = physics
	cost = @tier3cost1
	tier = 3	
	category = { particles }
	ai_update_type = military
	prerequisites = { "tech_lasers_4" }
	is_reverse_engineerable = no
	weight = 0
	
	weight_modifier = {
		modifier = {
			factor = 1.25
			has_ethic = ethic_militarist
		}
		modifier = {
			factor = 1.5
			has_ethic = ethic_fanatic_militarist
		}
		modifier = {
			factor = 1.25
			research_leader = {
				area = physics
				has_trait = "leader_trait_expertise_particles"
			}
		}
	}
	
	ai_weight = {
		factor = 2		#weapons are good
		modifier = {
			factor = 1.25
			has_ethic = ethic_militarist
		}
		modifier = {
			factor = 1.5
			has_ethic = ethic_fanatic_militarist
		}
		modifier = {
			factor = 1.25
			research_leader = {
				area = physics
				has_trait = "leader_trait_expertise_particles"
			}
		}
	}
}

tech_energy_lance_1 = {
	area = physics
	cost = @tier3cost1
	tier = 3
	category = { particles }
	ai_update_type = military	
	prerequisites = { "tech_lasers_5" "tech_spaceport_6" }
	is_reverse_engineerable = no
	weight = 0
	
	weight_modifier = {
		modifier = {
			factor = 1.25
			has_ethic = ethic_militarist
		}
		modifier = {
			factor = 1.5
			has_ethic = ethic_fanatic_militarist
		}
		modifier = {
			factor = 1.25
			research_leader = {
				area = physics
				has_trait = "leader_trait_expertise_particles"
			}
		}	
	}
	
	ai_weight = {
		factor = 2		#weapons are good
		modifier = {
			factor = 1.25
			has_ethic = ethic_militarist
		}
		modifier = {
			factor = 1.5
			has_ethic = ethic_fanatic_militarist
		}
		modifier = {
			factor = 1.25
			research_leader = {
				area = physics
				has_trait = "leader_trait_expertise_particles"
			}
		}
	}
}

tech_energy_lance_2 = {
	area = physics
	cost = @tier3cost4
	tier = 3
	category = { particles }
	ai_update_type = military
	prerequisites = { "tech_energy_lance_1" }
	is_reverse_engineerable = no
	weight = 0
	
	weight_modifier = {
		modifier = {
			factor = 1.25
			has_ethic = ethic_militarist
		}
		modifier = {
			factor = 1.5
			has_ethic = ethic_fanatic_militarist
		}
		modifier = {
			factor = 1.25
			research_leader = {
				area = physics
				has_trait = "leader_trait_expertise_particles"
			}
		}	
	}
	
	ai_weight = {
		factor = 2		#weapons are good
		modifier = {
			factor = 1.25
			has_ethic = ethic_militarist
		}
		modifier = {
			factor = 1.5
			has_ethic = ethic_fanatic_militarist
		}
		modifier = {
			factor = 1.25
			research_leader = {
				area = physics
				has_trait = "leader_trait_expertise_particles"
			}
		}
	}
}

# ##################
# Plasma Weapons
# ##################

tech_plasma_1 = {
	area = physics
	cost = @tier2cost1
	tier = 2
	category = { particles }
	ai_update_type = military
	is_reverse_engineerable = no
	weight = 0
	
	weight_modifier = {
		modifier = {
			factor = 1.25
			has_ethic = ethic_militarist
		}
		modifier = {
			factor = 1.5
			has_ethic = ethic_fanatic_militarist
		}
		modifier = {
			factor = 1.25
			research_leader = {
				area = physics
				has_trait = "leader_trait_expertise_particles"
			}
		}
		modifier = {
			factor = 0.5
			NOT = {
				has_technology = "tech_lasers_1"
			}
		}	
	}
	
	ai_weight = {
		factor = 2		#weapons are good
		modifier = {
			factor = 1.25
			has_ethic = ethic_militarist
		}
		modifier = {
			factor = 1.5
			has_ethic = ethic_fanatic_militarist
		}
		modifier = {
			factor = 1.25
			research_leader = {
				area = physics
				has_trait = "leader_trait_expertise_particles"
			}
		}
	}
}

tech_plasma_2 = {
	area = physics
	cost = @tier2cost3
	tier = 2
	category = { particles }
	ai_update_type = military
	prerequisites = { "tech_plasma_1" }
	is_reverse_engineerable = no
	weight = 0
	
	weight_modifier = {
		modifier = {
			factor = 1.25
			has_ethic = ethic_militarist
		}
		modifier = {
			factor = 1.5
			has_ethic = ethic_fanatic_militarist
		}
		modifier = {
			factor = 1.25
			research_leader = {
				area = physics
				has_trait = "leader_trait_expertise_particles"
			}
		}	
	}
	
	ai_weight = {
		factor = 2		#weapons are good
		modifier = {
			factor = 1.25
			has_ethic = ethic_militarist
		}
		modifier = {
			factor = 1.5
			has_ethic = ethic_fanatic_militarist
		}
		modifier = {
			factor = 1.25
			research_leader = {
				area = physics
				has_trait = "leader_trait_expertise_particles"
			}
		}
	}
}

tech_plasma_3 = {
	area = physics
	cost = @tier3cost1
	tier = 3
	category = { particles }
	ai_update_type = military	
	prerequisites = { "tech_plasma_2" }
	is_reverse_engineerable = no
	weight = 0
	
	weight_modifier = {
		modifier = {
			factor = 1.25
			has_ethic = ethic_militarist
		}
		modifier = {
			factor = 1.5
			has_ethic = ethic_fanatic_militarist
		}
		modifier = {
			factor = 1.25
			research_leader = {
				area = physics
				has_trait = "leader_trait_expertise_particles"
			}
		}	
	}
	
	ai_weight = {
		factor = 2		#weapons are good
		modifier = {
			factor = 1.25
			has_ethic = ethic_militarist
		}
		modifier = {
			factor = 1.5
			has_ethic = ethic_fanatic_militarist
		}
		modifier = {
			factor = 1.25
			research_leader = {
				area = physics
				has_trait = "leader_trait_expertise_particles"
			}
		}
	}
}

tech_arc_emitter_1 = {
	area = physics
	cost = @tier3cost2
	tier = 3
	category = { particles }
	ai_update_type = military	
	prerequisites = { "tech_plasma_3" "tech_spaceport_6" }
	is_reverse_engineerable = no
	weight = 0
	
	weight_modifier = {
		modifier = {
			factor = 1.25
			has_ethic = ethic_militarist
		}
		modifier = {
			factor = 1.5
			has_ethic = ethic_fanatic_militarist
		}
		modifier = {
			factor = 1.25
			research_leader = {
				area = physics
				has_trait = "leader_trait_expertise_particles"
			}
		}
		modifier = {
			factor = 0.5
			NOT = {
				has_technology = "tech_lasers_1"
			}
		}	
	}
	
	ai_weight = {
		factor = 2		#weapons are good
		modifier = {
			factor = 1.25
			has_ethic = ethic_militarist
		}
		modifier = {
			factor = 1.5
			has_ethic = ethic_fanatic_militarist
		}
		modifier = {
			factor = 1.25
			research_leader = {
				area = physics
				has_trait = "leader_trait_expertise_particles"
			}
		}
	}
}

tech_arc_emitter_2 = {
	area = physics
	cost = @tier3cost4
	tier = 3
	category = { particles }
	ai_update_type = military	
	prerequisites = { "tech_arc_emitter_1" }
	is_reverse_engineerable = no
	weight = 0
	
	weight_modifier = {
		modifier = {
			factor = 1.25
			has_ethic = ethic_militarist
		}
		modifier = {
			factor = 1.5
			has_ethic = ethic_fanatic_militarist
		}
		modifier = {
			factor = 1.25
			research_leader = {
				area = physics
				has_trait = "leader_trait_expertise_particles"
			}
		}	
	}
	
	ai_weight = {
		factor = 2		#weapons are good
		modifier = {
			factor = 1.25
			has_ethic = ethic_militarist
		}
		modifier = {
			factor = 1.5
			has_ethic = ethic_fanatic_militarist
		}
		modifier = {
			factor = 1.25
			research_leader = {
				area = physics
				has_trait = "leader_trait_expertise_particles"
			}
		}
	}
}

# ##################
# Disruptor Weapons
# ##################

tech_disruptors_1 = {
	area = physics
	cost = @tier2cost1
	tier = 2
	category = { particles }
	ai_update_type = military
	is_reverse_engineerable = no
	weight = 0
	
	weight_modifier = {
		modifier = {
			factor = 1.25
			has_ethic = ethic_militarist
		}
		modifier = {
			factor = 1.5
			has_ethic = ethic_fanatic_militarist
		}
		modifier = {
			factor = 1.25
			research_leader = {
				area = physics
				has_trait = "leader_trait_expertise_particles"
			}
		}
		modifier = {
			factor = 0.5
			NOT = {
				has_technology = "tech_lasers_1"
			}
		}	
	}
	
	ai_weight = {
		factor = 2		#weapons are good
		modifier = {
			factor = 1.25
			has_ethic = ethic_militarist
		}
		modifier = {
			factor = 1.5
			has_ethic = ethic_fanatic_militarist
		}
		modifier = {
			factor = 1.25
			research_leader = {
				area = physics
				has_trait = "leader_trait_expertise_particles"
			}
		}
	}
}

tech_disruptors_2 = {
	area = physics
	cost = @tier2cost3
	tier = 2
	category = { particles }
	ai_update_type = military	
	prerequisites = { "tech_disruptors_1" }
	is_reverse_engineerable = no
	weight = 0
	
	weight_modifier = {
		modifier = {
			factor = 1.25
			has_ethic = ethic_militarist
		}
		modifier = {
			factor = 1.5
			has_ethic = ethic_fanatic_militarist
		}
		modifier = {
			factor = 1.25
			research_leader = {
				area = physics
				has_trait = "leader_trait_expertise_particles"
			}
		}	
	}
	
	ai_weight = {
		factor = 2		#weapons are good
		modifier = {
			factor = 1.25
			has_ethic = ethic_militarist
		}
		modifier = {
			factor = 1.5
			has_ethic = ethic_fanatic_militarist
		}
		modifier = {
			factor = 1.25
			research_leader = {
				area = physics
				has_trait = "leader_trait_expertise_particles"
			}
		}
	}
}

tech_disruptors_3 = {
	area = physics
	cost = @tier3cost1
	tier = 3
	category = { particles }
	ai_update_type = military
	prerequisites = { "tech_disruptors_2" }
	is_reverse_engineerable = no
	weight = 0
	
	weight_modifier = {
		modifier = {
			factor = 1.25
			has_ethic = ethic_militarist
		}
		modifier = {
			factor = 1.5
			has_ethic = ethic_fanatic_militarist
		}
		modifier = {
			factor = 1.25
			research_leader = {
				area = physics
				has_trait = "leader_trait_expertise_particles"
			}
		}	
	}	
	
	ai_weight = {
		factor = 2		#weapons are good
		modifier = {
			factor = 1.25
			has_ethic = ethic_militarist
		}
		modifier = {
			factor = 1.5
			has_ethic = ethic_fanatic_militarist
		}
		modifier = {
			factor = 1.25
			research_leader = {
				area = physics
				has_trait = "leader_trait_expertise_particles"
			}
		}
	}
}

# ##################
# Energy Torpedo Weapons
# ##################

tech_energy_torpedoes_1 = {
	area = physics
	cost = @tier2cost2
	tier = 3
	category = { particles }
	ai_update_type = military	
	prerequisites = { "tech_disruptors_1" }
	is_reverse_engineerable = no
	weight = 0
	
	weight_modifier = {
		modifier = {
			factor = 1.25
			has_ethic = ethic_militarist
		}
		modifier = {
			factor = 1.5
			has_ethic = ethic_fanatic_militarist
		}
		modifier = {
			factor = 0.5
			NOT = {
				has_technology = "tech_lasers_1"
			}
		}	
		modifier = {
			factor = 1.25
			research_leader = {
				area = physics
				has_trait = "leader_trait_expertise_particles"
			}
		}	
	}
	
	ai_weight = {
		factor = 2		#weapons are good
		modifier = {
			factor = 1.25
			has_ethic = ethic_militarist
		}
		modifier = {
			factor = 1.5
			has_ethic = ethic_fanatic_militarist
		}
		modifier = {
			factor = 1.25
			research_leader = {
				area = physics
				has_trait = "leader_trait_expertise_particles"
			}
		}
	}
}

tech_energy_torpedoes_2 = {
	area = physics
	cost = @tier3cost1
	tier = 3
	category = { particles }
	ai_update_type = military	
	prerequisites = { "tech_energy_torpedoes_1" }
	is_reverse_engineerable = no
	weight = 0
	
	weight_modifier = {
		modifier = {
			factor = 1.25
			has_ethic = ethic_militarist
		}
		modifier = {
			factor = 1.5
			has_ethic = ethic_fanatic_militarist
		}
		modifier = {
			factor = 1.25
			research_leader = {
				area = physics
				has_trait = "leader_trait_expertise_particles"
			}
		}	
	}
	
	ai_weight = {
		factor = 2		#weapons are good
		modifier = {
			factor = 1.25
			has_ethic = ethic_militarist
		}
		modifier = {
			factor = 1.5
			has_ethic = ethic_fanatic_militarist
		}
		modifier = {
			factor = 1.25
			research_leader = {
				area = physics
				has_trait = "leader_trait_expertise_particles"
			}
		}
	}
}

# ##################
# Point-Defense
# ##################

#Active Countermeasures
tech_pd_tracking_1 = {
	area = physics
	tier = 1
	cost = @tier1cost2
	category = { computing }		
	ai_update_type = military
	prerequisites = { "tech_administrative_ai" }
	is_reverse_engineerable = no
	weight = 0
	
	# unlocks point defence 1
	
	weight_modifier = {
		modifier = {
			factor = 1.25
			research_leader = {
				area = physics
				has_trait = "leader_trait_expertise_computing"
			}
		}
	}
	
	ai_weight = {
		modifier = {
			factor = 1.25
			research_leader = {
				area = physics
				has_trait = "leader_trait_expertise_computing"
			}
		}
	}
}

#Interlinked Support Systems
tech_pd_tracking_2 = {
	area = physics
	tier = 2
	cost = @tier2cost2
	category = { computing }
	ai_update_type = military
	prerequisites = { "tech_pd_tracking_1" }
	is_reverse_engineerable = no
	weight = 0
	
	# unlocks point defence 2
	
	weight_modifier = {
		modifier = {
			factor = 1.25
			research_leader = {
				area = physics
				has_trait = "leader_trait_expertise_computing"
			}
		}
	}	
	
	ai_weight = {
		modifier = {
			factor = 1.25
			research_leader = {
				area = physics
				has_trait = "leader_trait_expertise_computing"
			}
		}
	}
}

#Predictive Algorithms
tech_pd_tracking_3 = {
	area = physics
	tier = 3
	cost = @tier3cost3
	category = { computing }
	ai_update_type = military
	prerequisites = { "tech_pd_tracking_2" }
	is_reverse_engineerable = no
	weight = 0
	
	# unlocks point defence 3
	
	weight_modifier = {
		modifier = {
			factor = 1.25
			research_leader = {
				area = physics
				has_trait = "leader_trait_expertise_computing"
			}
		}
	}		
	
	ai_weight = {
		modifier = {
			factor = 1.25
			research_leader = {
				area = physics
				has_trait = "leader_trait_expertise_computing"
			}
		}
	}
}

# ##################
# Critter Weapons
# ##################

tech_extradimensional_weapon_1 = {
	area = physics
	cost = @tier3cost4
	tier = 3
	is_rare = yes
	category = { particles }
	ai_update_type = military
	is_reverse_engineerable = no
	weight = 0
	
	weight_modifier = {
		factor = 10
		modifier = {
			factor = 0
			NOT = { has_modifier = covenant_end_of_the_cycle }
		}
	}
	
	ai_weight = {
		factor = 5		#weapons are good
		modifier = {
			factor = 1.25
			has_ethic = ethic_militarist
		}
		modifier = {
			factor = 1.5
			has_ethic = ethic_fanatic_militarist
		}
		modifier = {
			factor = 1.25
			research_leader = {
				area = physics
				has_trait = "leader_trait_expertise_particles"
			}
		}
	}
}

tech_mining_drone_weapon_1 = {
	area = physics
	cost = @tier1cost4
	tier = 1
	category = { particles }
	ai_update_type = military
	is_reverse_engineerable = no
	weight = 0
	
	ai_weight = {
		factor = 2		#weapons are good
		modifier = {
			factor = 1.25
			has_ethic = ethic_militarist
		}
		modifier = {
			factor = 1.5
			has_ethic = ethic_fanatic_militarist
		}
		modifier = {
			factor = 1.25
			research_leader = {
				area = physics
				has_trait = "leader_trait_expertise_particles"
			}
		}
	}
}

tech_space_cloud_weapon_1 = {
	area = physics
	cost = @tier2cost2
	tier = 2
	is_rare = yes
	category = { particles }
	ai_update_type = military	
	is_reverse_engineerable = no
	weight = 0
	
	ai_weight = {
		factor = 2		#weapons are good
		modifier = {
			factor = 1.25
			has_ethic = ethic_militarist
		}
		modifier = {
			factor = 1.5
			has_ethic = ethic_fanatic_militarist
		}
		modifier = {
			factor = 1.25
			research_leader = {
				area = physics
				has_trait = "leader_trait_expertise_particles"
			}
		}
	}
}

tech_blue_crystal_weapon_1 = {
	area = physics
	cost = @tier1cost2
	tier = 1
	category = { particles }
	ai_update_type = military
	is_reverse_engineerable = no
	weight = 0
	
	ai_weight = {
		factor = 2		#weapons are good
		modifier = {
			factor = 1.25
			has_ethic = ethic_militarist
		}
		modifier = {
			factor = 1.5
			has_ethic = ethic_fanatic_militarist
		}
		modifier = {
			factor = 1.25
			research_leader = {
				area = physics
				has_trait = "leader_trait_expertise_particles"
			}
		}
	}
}

tech_green_crystal_weapon_1 = {
	area = physics
	cost = @tier1cost4
	tier = 1
	category = { particles }
	ai_update_type = military
	is_reverse_engineerable = no
	weight = 0
	
	ai_weight = {
		factor = 2		#weapons are good
		modifier = {
			factor = 1.25
			has_ethic = ethic_militarist
		}
		modifier = {
			factor = 1.5
			has_ethic = ethic_fanatic_militarist
		}
		modifier = {
			factor = 1.25
			research_leader = {
				area = physics
				has_trait = "leader_trait_expertise_particles"
			}
		}
	}
}

tech_yellow_crystal_weapon_1 = {
	area = physics
	cost = @tier2cost2
	tier = 2
	is_rare = yes
	category = { particles }
	ai_update_type = military
	is_reverse_engineerable = no
	weight = 0
	
	ai_weight = {
		factor = 2		#weapons are good
		modifier = {
			factor = 1.25
			has_ethic = ethic_militarist
		}
		modifier = {
			factor = 1.5
			has_ethic = ethic_fanatic_militarist
		}
		modifier = {
			factor = 1.25
			research_leader = {
				area = physics
				has_trait = "leader_trait_expertise_particles"
			}
		}
	}
}

tech_red_crystal_weapon_1 = {
	area = physics
	cost = @tier2cost4
	tier = 2
	is_rare = yes
	category = { particles }
	ai_update_type = military
	is_reverse_engineerable = no
	weight = 0
	
	ai_weight = {
		factor = 2		#weapons are good
		modifier = {
			factor = 1.25
			has_ethic = ethic_militarist
		}
		modifier = {
			factor = 1.5
			has_ethic = ethic_fanatic_militarist
		}
		modifier = {
			factor = 1.25
			research_leader = {
				area = physics
				has_trait = "leader_trait_expertise_particles"
			}
		}
	}
}